…
ggsave('weight_physical_activity.png')
## Saving 5 x 4 in image
## `geom_smooth()` using method = 'gam' and formula = 'y ~ s(x, bs = "cs")'
We can infer that users weighing around 60kg & 85kg are the most active
The number of overweight users
daily_activity_cl %>% distinct(id)
## # A tibble: 33 × 1
##            id
##         <dbl>
##  1 1503960366
##  2 1624580081
##  3 1644430081
##  4 1844505072
##  5 1927972279
##  6 2022484408
##  7 2026352035
##  8 2320127002
##  9 2347167796
## 10 2873212765
## # ℹ 23 more rows
…
